GROUP,PACKAGE,CLASS,INSTRUCTION_MISSED,INSTRUCTION_COVERED,BRANCH_MISSED,BRANCH_COVERED,LINE_MISSED,LINE_COVERED,COMPLEXITY_MISSED,COMPLEXITY_COVERED,METHOD_MISSED,METHOD_COVERED
AssosciateManagement,com.epam.exception,AssociateException,0,4,0,0,0,2,0,1,0,1
AssosciateManagement,com.epam.exceptionhandler,ApplicationHandler,36,52,0,0,10,13,2,5,2,5
AssosciateManagement,com.epam.exceptionhandler,ExceptionResponse,0,27,0,0,0,2,0,5,0,5
AssosciateManagement,com.epam.entities,Associate,0,52,0,0,0,3,0,15,0,15
AssosciateManagement,com.epam.entities,Batch,7,38,0,0,0,3,2,11,2,11
AssosciateManagement,com.epam.service,AssociateServiceImpl,0,117,0,2,0,22,0,9,0,8
AssosciateManagement,com.epam.controller,AssociateController,0,51,0,0,0,11,0,6,0,6
AssosciateManagement,com.epam,AssosciateManagementApplication,5,7,0,0,2,2,1,2,1,2
AssosciateManagement,com.epam.dtos,AssociateDto,0,52,0,0,0,3,0,15,0,15
AssosciateManagement,com.epam.dtos,BatchDto,0,38,0,0,0,3,0,11,0,11
